-------------------------------------------------------------------------------
Test set: br.pucrio.inf.les.investprofile.webapp.controller.UserControllerTest
-------------------------------------------------------------------------------
Tests run: 1, Failures: 0, Errors: 0, Skipped: 0, Time elapsed: 0.235 sec
