-------------------------------------------------------------------------------
Test set: br.pucrio.inf.les.investprofile.webapp.filter.StaticFilterTest
-------------------------------------------------------------------------------
Tests run: 2, Failures: 0, Errors: 0, Skipped: 0, Time elapsed: 0.016 sec
